{"bills":[{"links":[{"rel":"self","href":"http://example.org/bills/3cea3cab019984233228c2eaff0edcbbb733"}],"id":"3cea3cab019984233228c2eaff0edcbbb733","amount_cents":3456,"memo":"Test Bill #8","identifier":"testbill8","customer_id":null,"currency":"USD","status":"open","recurring":false,"rendered_content":"foo","date":"2012-09-11","created_at":"2012-09-11T21:01:21Z","updated_at":"2012-09-11T21:01:21Z","vendor":{"links":[{"rel":"self","href":"http://example.org/vendors/3e919a6e-d8c1-11e0-9e1f-e394e5601a36"},{"rel":"users","href":"http://example.org/vendors/3e919a6e-d8c1-11e0-9e1f-e394e5601a36/vendor_users"},{"rel":"applications","href":"http://example.org/vendors/3e919a6e-d8c1-11e0-9e1f-e394e5601a36/vendor_applications"},{"rel":"accounts","href":"http://example.org/vendors/3e919a6e-d8c1-11e0-9e1f-e394e5601a36/accounts"},{"rel":"bills","href":"http://example.org/vendors/3e919a6e-d8c1-11e0-9e1f-e394e5601a36/bills"},{"rel":"bill_payments","href":"http://example.org/vendors/3e919a6e-d8c1-11e0-9e1f-e394e5601a36/bill_payments"},{"rel":"bill_templates","href":"http://example.org/vendors/3e919a6e-d8c1-11e0-9e1f-e394e5601a36/bill_templates"},{"rel":"integrations","href":"http://example.org/vendors/3e919a6e-d8c1-11e0-9e1f-e394e5601a36/integrations"}],"id":"3e919a6e-d8c1-11e0-9e1f-e394e5601a36","name":"Test Vendor","identifier":"test_vendor"}},{"links":[{"rel":"self","href":"http://example.org/bills/3ceaf09259f883159622aa4401ab7d06d45a"}],"id":"3ceaf09259f883159622aa4401ab7d06d45a","amount_cents":2345,"memo":"Test Bill #7","identifier":"testbill7","customer_id":null,"currency":"USD","status":"open","recurring":false,"rendered_content":"foo","date":"2012-09-11","created_at":"2012-09-11T20:57:53Z","updated_at":"2012-09-11T20:57:53Z","vendor":{"links":[{"rel":"self","href":"http://example.org/vendors/3e919a6e-d8c1-11e0-9e1f-e394e5601a36"},{"rel":"users","href":"http://example.org/vendors/3e919a6e-d8c1-11e0-9e1f-e394e5601a36/vendor_users"},{"rel":"applications","href":"http://example.org/vendors/3e919a6e-d8c1-11e0-9e1f-e394e5601a36/vendor_applications"},{"rel":"accounts","href":"http://example.org/vendors/3e919a6e-d8c1-11e0-9e1f-e394e5601a36/accounts"},{"rel":"bills","href":"http://example.org/vendors/3e919a6e-d8c1-11e0-9e1f-e394e5601a36/bills"},{"rel":"bill_payments","href":"http://example.org/vendors/3e919a6e-d8c1-11e0-9e1f-e394e5601a36/bill_payments"},{"rel":"bill_templates","href":"http://example.org/vendors/3e919a6e-d8c1-11e0-9e1f-e394e5601a36/bill_templates"},{"rel":"integrations","href":"http://example.org/vendors/3e919a6e-d8c1-11e0-9e1f-e394e5601a36/integrations"}],"id":"3e919a6e-d8c1-11e0-9e1f-e394e5601a36","name":"Test Vendor","identifier":"test_vendor"}},{"links":[{"rel":"self","href":"http://example.org/bills/3cea079b288120ffb129dfb62ae18de3dfee"}],"id":"3cea079b288120ffb129dfb62ae18de3dfee","amount_cents":1234,"memo":"Test Bill #6","identifier":"testbill6","customer_id":null,"currency":"USD","status":"open","recurring":false,"rendered_content":"foo","date":"2012-09-11","created_at":"2012-09-11T20:57:21Z","updated_at":"2012-09-11T20:57:21Z","vendor":{"links":[{"rel":"self","href":"http://example.org/vendors/3e919a6e-d8c1-11e0-9e1f-e394e5601a36"},{"rel":"users","href":"http://example.org/vendors/3e919a6e-d8c1-11e0-9e1f-e394e5601a36/vendor_users"},{"rel":"applications","href":"http://example.org/vendors/3e919a6e-d8c1-11e0-9e1f-e394e5601a36/vendor_applications"},{"rel":"accounts","href":"http://example.org/vendors/3e919a6e-d8c1-11e0-9e1f-e394e5601a36/accounts"},{"rel":"bills","href":"http://example.org/vendors/3e919a6e-d8c1-11e0-9e1f-e394e5601a36/bills"},{"rel":"bill_payments","href":"http://example.org/vendors/3e919a6e-d8c1-11e0-9e1f-e394e5601a36/bill_payments"},{"rel":"bill_templates","href":"http://example.org/vendors/3e919a6e-d8c1-11e0-9e1f-e394e5601a36/bill_templates"},{"rel":"integrations","href":"http://example.org/vendors/3e919a6e-d8c1-11e0-9e1f-e394e5601a36/integrations"}],"id":"3e919a6e-d8c1-11e0-9e1f-e394e5601a36","name":"Test Vendor","identifier":"test_vendor"}}],"meta":{"pagination":{"page":1,"total_pages":3,"total":8,"per_page":3,"first_page":true,"last_page":false}},"links":[{"rel":"first","href":"http://example.org/bills?page=1"},{"rel":"last","href":"http://example.org/bills?page=3"},{"rel":"next","href":"http://example.org/bills?page=2"}]}
