HTTP/1.1 200 OK
x-vendor-name: Test Vendor
Content-Type: application/json; charset=utf-8
X-UA-Compatible: IE=Edge,chrome=1
ETag: "ca53b1bd535e843368403e9c34ddbcba"
Cache-Control: max-age=0, private, must-revalidate
X-Request-Id: 97275c433f3b547ba18bfb980f70efd0
X-Runtime: 0.029906
Connection: close

{"bills":[{"links":[{"rel":"self","href":"http://example.org/bills/3ce95db62b1069e59e122c515eb191c70987"}],"id":"3ce95db62b1069e59e122c515eb191c70987","amount_cents":12345,"memo":"Test Bill #5","identifier":"testbill5","customer_id":null,"currency":"USD","status":"open","recurring":false,"rendered_content":"foo","date":"2012-09-10","created_at":"2012-09-10T15:21:13Z","updated_at":"2012-09-10T15:21:13Z","vendor":{"links":[{"rel":"self","href":"http://example.org/vendors/3e919a6e-d8c1-11e0-9e1f-e394e5601a36"},{"rel":"users","href":"http://example.org/vendors/3e919a6e-d8c1-11e0-9e1f-e394e5601a36/vendor_users"},{"rel":"applications","href":"http://example.org/vendors/3e919a6e-d8c1-11e0-9e1f-e394e5601a36/vendor_applications"},{"rel":"accounts","href":"http://example.org/vendors/3e919a6e-d8c1-11e0-9e1f-e394e5601a36/accounts"},{"rel":"bills","href":"http://example.org/vendors/3e919a6e-d8c1-11e0-9e1f-e394e5601a36/bills"},{"rel":"bill_payments","href":"http://example.org/vendors/3e919a6e-d8c1-11e0-9e1f-e394e5601a36/bill_payments"},{"rel":"bill_templates","href":"http://example.org/vendors/3e919a6e-d8c1-11e0-9e1f-e394e5601a36/bill_templates"},{"rel":"integrations","href":"http://example.org/vendors/3e919a6e-d8c1-11e0-9e1f-e394e5601a36/integrations"}],"id":"3e919a6e-d8c1-11e0-9e1f-e394e5601a36","name":"Test Vendor","identifier":"test_vendor"}},{"links":[{"rel":"self","href":"http://example.org/bills/3ce627f7559478bee1129dae3203e373f0df"}],"id":"3ce627f7559478bee1129dae3203e373f0df","amount_cents":1030,"memo":"Test Bill #4","identifier":"testbill4","customer_id":null,"currency":"USD","status":"open","recurring":false,"rendered_content":"foo","date":"2012-09-07","created_at":"2012-09-07T21:59:01Z","updated_at":"2012-09-07T21:59:01Z","vendor":{"links":[{"rel":"self","href":"http://example.org/vendors/3e919a6e-d8c1-11e0-9e1f-e394e5601a36"},{"rel":"users","href":"http://example.org/vendors/3e919a6e-d8c1-11e0-9e1f-e394e5601a36/vendor_users"},{"rel":"applications","href":"http://example.org/vendors/3e919a6e-d8c1-11e0-9e1f-e394e5601a36/vendor_applications"},{"rel":"accounts","href":"http://example.org/vendors/3e919a6e-d8c1-11e0-9e1f-e394e5601a36/accounts"},{"rel":"bills","href":"http://example.org/vendors/3e919a6e-d8c1-11e0-9e1f-e394e5601a36/bills"},{"rel":"bill_payments","href":"http://example.org/vendors/3e919a6e-d8c1-11e0-9e1f-e394e5601a36/bill_payments"},{"rel":"bill_templates","href":"http://example.org/vendors/3e919a6e-d8c1-11e0-9e1f-e394e5601a36/bill_templates"},{"rel":"integrations","href":"http://example.org/vendors/3e919a6e-d8c1-11e0-9e1f-e394e5601a36/integrations"}],"id":"3e919a6e-d8c1-11e0-9e1f-e394e5601a36","name":"Test Vendor","identifier":"test_vendor"}},{"links":[{"rel":"self","href":"http://example.org/bills/3ce69e91d68417d1e9892ca903eba8c66a2e"}],"id":"3ce69e91d68417d1e9892ca903eba8c66a2e","amount_cents":1030,"memo":"Test Bill #3","identifier":"testbill3","customer_id":null,"currency":"USD","status":"open","recurring":false,"rendered_content":"","date":"2012-09-07","created_at":"2012-09-07T19:42:02Z","updated_at":"2012-09-07T19:42:02Z","vendor":{"links":[{"rel":"self","href":"http://example.org/vendors/3e919a6e-d8c1-11e0-9e1f-e394e5601a36"},{"rel":"users","href":"http://example.org/vendors/3e919a6e-d8c1-11e0-9e1f-e394e5601a36/vendor_users"},{"rel":"applications","href":"http://example.org/vendors/3e919a6e-d8c1-11e0-9e1f-e394e5601a36/vendor_applications"},{"rel":"accounts","href":"http://example.org/vendors/3e919a6e-d8c1-11e0-9e1f-e394e5601a36/accounts"},{"rel":"bills","href":"http://example.org/vendors/3e919a6e-d8c1-11e0-9e1f-e394e5601a36/bills"},{"rel":"bill_payments","href":"http://example.org/vendors/3e919a6e-d8c1-11e0-9e1f-e394e5601a36/bill_payments"},{"rel":"bill_templates","href":"http://example.org/vendors/3e919a6e-d8c1-11e0-9e1f-e394e5601a36/bill_templates"},{"rel":"integrations","href":"http://example.org/vendors/3e919a6e-d8c1-11e0-9e1f-e394e5601a36/integrations"}],"id":"3e919a6e-d8c1-11e0-9e1f-e394e5601a36","name":"Test Vendor","identifier":"test_vendor"}}],"meta":{"pagination":{"page":2,"total_pages":3,"total":8,"per_page":3,"first_page":false,"last_page":false}},"links":[{"rel":"first","href":"http://example.org/bills?page=1"},{"rel":"last","href":"http://example.org/bills?page=3"},{"rel":"next","href":"http://example.org/bills?page=3"},{"rel":"prev","href":"http://example.org/bills?page=1"}]}
