HTTP/1.1 200 OK
x-vendor-name: Test Vendor
Content-Type: application/json; charset=utf-8
X-UA-Compatible: IE=Edge,chrome=1
ETag: "1151f039dafb21abd4a89d2a1f936375"
Cache-Control: max-age=0, private, must-revalidate
X-Request-Id: 27e7a103f30cf1795f5060038b073478
X-Runtime: 0.019609
Connection: close

{"bills":[{"links":[{"rel":"self","href":"http://example.org/bills/3cac84ebc01670c57b0f1d73f2ea0e5a358a"}],"id":"3cac84ebc01670c57b0f1d73f2ea0e5a358a","amount_cents":1000,"memo":"Test Bill #2","identifier":"testbill2","customer_id":"49328e7d3c22f79b07b0","currency":"USD","status":"open","recurring":false,"rendered_content":"test content","date":"2012-07-11","created_at":"2012-07-11T20:16:30Z","updated_at":"2012-07-11T20:16:30Z","vendor":{"links":[{"rel":"self","href":"http://example.org/vendors/3e919a6e-d8c1-11e0-9e1f-e394e5601a36"},{"rel":"users","href":"http://example.org/vendors/3e919a6e-d8c1-11e0-9e1f-e394e5601a36/vendor_users"},{"rel":"applications","href":"http://example.org/vendors/3e919a6e-d8c1-11e0-9e1f-e394e5601a36/vendor_applications"},{"rel":"accounts","href":"http://example.org/vendors/3e919a6e-d8c1-11e0-9e1f-e394e5601a36/accounts"},{"rel":"bills","href":"http://example.org/vendors/3e919a6e-d8c1-11e0-9e1f-e394e5601a36/bills"},{"rel":"bill_payments","href":"http://example.org/vendors/3e919a6e-d8c1-11e0-9e1f-e394e5601a36/bill_payments"},{"rel":"bill_templates","href":"http://example.org/vendors/3e919a6e-d8c1-11e0-9e1f-e394e5601a36/bill_templates"},{"rel":"integrations","href":"http://example.org/vendors/3e919a6e-d8c1-11e0-9e1f-e394e5601a36/integrations"}],"id":"3e919a6e-d8c1-11e0-9e1f-e394e5601a36","name":"Test Vendor","identifier":"test_vendor"}},{"links":[{"rel":"self","href":"http://example.org/bills/3ce95db62b1069e59e122c515eb191c70987"}],"id":"3ce95db62b1069e59e122c515eb191c70987","amount_cents":12345,"memo":"Test Bill #1","identifier":"testbill1","customer_id":null,"currency":"USD","status":"open","recurring":false,"rendered_content":"foo","date":"2012-09-10","created_at":"2012-09-10T15:21:13Z","updated_at":"2012-09-10T15:21:13Z","vendor":{"links":[{"rel":"self","href":"http://example.org/vendors/3e919a6e-d8c1-11e0-9e1f-e394e5601a36"},{"rel":"users","href":"http://example.org/vendors/3e919a6e-d8c1-11e0-9e1f-e394e5601a36/vendor_users"},{"rel":"applications","href":"http://example.org/vendors/3e919a6e-d8c1-11e0-9e1f-e394e5601a36/vendor_applications"},{"rel":"accounts","href":"http://example.org/vendors/3e919a6e-d8c1-11e0-9e1f-e394e5601a36/accounts"},{"rel":"bills","href":"http://example.org/vendors/3e919a6e-d8c1-11e0-9e1f-e394e5601a36/bills"},{"rel":"bill_payments","href":"http://example.org/vendors/3e919a6e-d8c1-11e0-9e1f-e394e5601a36/bill_payments"},{"rel":"bill_templates","href":"http://example.org/vendors/3e919a6e-d8c1-11e0-9e1f-e394e5601a36/bill_templates"},{"rel":"integrations","href":"http://example.org/vendors/3e919a6e-d8c1-11e0-9e1f-e394e5601a36/integrations"}],"id":"3e919a6e-d8c1-11e0-9e1f-e394e5601a36","name":"Test Vendor","identifier":"test_vendor"}}],"meta":{"pagination":{"page":3,"total_pages":3,"total":8,"per_page":3,"first_page":false,"last_page":true}},"links":[{"rel":"first","href":"http://example.org/bills?page=1"},{"rel":"last","href":"http://example.org/bills?page=3"},{"rel":"prev","href":"http://example.org/bills?page=2"}]}
